Search a pdf file for keywords — keyword_search • pdfsearch
…
# Add surrounding text
keyword_search(file, keyword = c('variance', 'mixed effects'),
  path = TRUE, surround_lines = 1)
#> # A tibble: 64 x 5
#>    keyword  page_num line_num line_text token_text
#>    <chr>       <int>    <int> <list>    <list>    
#>  1 variance        1        4 <chr [3]> <list [3]>
#>  2 variance        1       10 <chr [3]> <list [3]>
#>  3 variance        1       21 <chr [3]> <list [3]>
#>  4 variance        1       31 <chr [3]> <list [3]>
#>  5 variance        1       33 <chr [3]> <list [3]>
#>  6 variance        1       38 <chr [3]> <list [3]>
#>  7 variance        1       40 <chr [3]> <list [3]>
#>  8 variance        2       72 <chr [3]> <list [3]>
#>  9 variance        2       73 <chr [3]> <list [3]>
#> 10 variance        2       75 <chr [3]> <list [3]>
#> # … with 54 more rows
…
